{
  "version": "0.1.0",
  "agent": {
    "apk": "nwagent/nwagent.apk",
    "package": "com.nextworld.agent",
    "version": "1.12.1"
  },
  "homeOculus": {
    "apk": "dist/next-world-home-oculus-1.13.0.apk",
    "package": "com.NextWorld.NextWorldMenu",
    "version": "1.13.0"
  },
  "homePico": {
    "apk": "dist/next-world-home-pico-1.13.0.apk",
    "package": "com.NextWorld.NextWorldMenu",
    "version": "1.13.0"
  },
  "games": [
    {
      "title": "Lockout Tagout - Demo",
      "package": "com.NextWorld.LockoutTagout",
      "version": "1.0.0",
      "apk": "demos/LOTO_Pico_1.00.apk",
      "image": "images/lockouttagout.jpg",
      "description": "Demo of Lockout Tagout",
      "access": "NWADMIN",
      "demo": true
    },
    {
      "title": "Fire Extinguisher Skills",
      "package": "com.nextworld.fireextinguisher",
      "version": "1.0.3",
      "apk": "fireextinguisher/fireextinguisher_v1.0.3.apk",
      "image": "fireextinguisher/fireextinguisher.png",
      "description": "Learn about the types of fire extinguishers, how to use a extinguisher and how to safely extinguish a fire.",
      "access": "pilot, csuite, partner"
    },
    {
      "title": "Fire Hazards",
      "package": "com.nextworld.firehazards",
      "version": "1.0.3",
      "apk": "firehazards/firehazards_v1.0.3.apk",
      "image": "firehazards/firehazards.png",
      "description": "Learn about the fundamentals of fire and practice identifying potential fire hazards around the workplace.",
      "access": "pilot, csuite, partner"
    },
    {
      "title": "Manual Handling",
      "package": "com.NextWorld.ManualHandling",
      "version": "1.0.0",
      "apk": "manualhandling/ManualHandling-ENAU_v1.0.2.apk",
      "image": "manualhandling/manualhandling.jpg",
      "description": "Learn how to properly undertake manual handling tasks.",
      "access": "pilot, csuite, partner"
    },
    {
      "title": "Ergonomic Hazards (US)",
      "package": "com.nextworld.manualhandling",
      "version": "1.0.90",
      "apk": "manualhandling/manualhandlingUS_v1.0.0.apk",
      "image": "manualhandling/manualhandling.jpg",
      "description": "Learn how to properly undertake lifting tasks in the workplace.",
      "access": "pilot, csuite, partner"
    },
    {
      "title": "Hazard Identification AU",
      "package": "com.NextWorld.HazardIdentification",
      "version": "1.0.0",
      "apk": "hazard/hazard-idAU.apk",
      "image": "hazard/hazard-id.jpg",
      "description": "Hazards identification is an important safety step. This experience will train you on how to identify hazards.",
      "access": "pilot, csuite, partner"
    },
    {
      "title": "Hazard Identification US",
      "package": "com.NextWorld.HazardIdentificationUS",
      "version": "1.0.0",
      "apk": "hazardus/hazard-idUS.apk",
      "image": "hazard/hazard-id.jpg",
      "description": "Hazards identification is an important safety step. This experience will train you on how to identify hazards.",
      "access": "pilot, csuite, partner"
    },
    {
      "title": "Confined Spaces",
      "package": "com.NextWorld.ConfinedSpace",
      "version": "1.2.1",
      "apk": "confined_space/ConfinedSpace_v1.2.1.apk",
      "image": "confined_space/confinedspace.png",
      "description": "Learn the proper procedures necessary for working in a confined space.",
      "access": "pilot, csuite, partner",
      "demo": true
    },
    {
      "title": "Chainsaw Operation",
      "package": "com.NextWorld.Chainsaw",
      "version": "1.0.0",
      "apk": "chainsaw/Chainsaw_v1.0.0.apk",
      "image": "chainsaw/chainsaw.png",
      "description": "Learn the proper maintenance and safety procedures of operating a chainsaw.",
      "access": "pilot, csuite, partner",
      "demo": true
    },
    {
      "title": "Excavator Safety",
      "package": "com.NextWorld.Excavator",
      "version": "0.0.12",
      "apk": "excavator/ExcavatorSafety_v0.0.12.apk",
      "image": "excavator/excavator.png",
      "description": "Learn how to load, secure and operate an Excavator in the workplace.",
      "access": "pilot, csuite, partner",
      "demo": true
    },
    {
      "title": "Working at Heights",
      "package": "com.NextWorld.WorkingAtHeights",
      "version": "1.1.0",
      "apk": "workingatheights/WorkingAtHeights_v1.1.0.apk",
      "image": "workingatheights/heights.png",
      "description": "Learn the process undertaken before and during work at heights.",
      "access": "pilot, csuite, partner",
      "demo": true
    },
    {
      "title": "Next World Experience",
      "package": "com.NextWorld.NextWorld",
      "version": "1.0.0",
      "apk": "csuite/NextWorld_v1.0.0.apk",
      "image": "csuite/csuite.png",
      "description": "Learn about the power of virtual reality in the workplace, and how Next World can help your company.",
      "access": "pilot, csuite"
    },
    {
      "title": "Pico Menu - Office Hazards Localization Demo",
      "package": "com.NextWorld.NextWorldMenu",
      "version": "0.0.1",
      "apk": "temp/MenuPico-OfficeHazardsTest.apk",
      "description": "",
      "access": "NWADMIN",
      "demo": true
    }
  ]
}